KPI-Telecom
1
1487.42
Zgurovski
18
male

Progbase
9000
1.99
Ruslan
25
male

Volia
47
228.822
Dich
8
female

UkrTelecom
100
100.13
Poroh
50
female

Matan
314
2.71828
Legeza
60
male

Meme
200
10.45
Yliana
99
female

Internet
1
10000
RobertElliot
77
male

WI-Fi
100000
0.0
JohnO’Sullivan
62
male

HappyKek
100
0.0
Zhora
18
male

KP-61
0
6100.16
Syshchyk
20
female

